2021-04-17T02:31:52+00:00 DEBUG Product #6084 is missing weight. Aborting Rate Calculation.


2021-04-17T02:32:07+00:00 DEBUG Product #6084 is missing weight. Aborting Rate Calculation.


2021-04-17T02:32:18+00:00 DEBUG Product #6084 is missing weight. Aborting Rate Calculation.


2021-04-17T02:32:26+00:00 DEBUG Product #6084 is missing weight. Aborting Rate Calculation.


2021-04-17T09:12:07+00:00 DEBUG Product #6084 is missing weight. Aborting Rate Calculation.


